<?xml version="1.0" encoding="utf-8"?>
<!-- Generator: Adobe Illustrator 22.1.0, SVG Export Plug-In . SVG Version: 6.00 Build 0)  -->
<svg version="1.1" id="Layer_1" xmlns="http://www.w3.org/2000/svg" xmlns:xlink="http://www.w3.org/1999/xlink" x="0px" y="0px"
	 viewBox="0 0 105 31" style="enable-background:new 0 0 105 31;" xml:space="preserve">
<style type="text/css">
	.st0{fill:#F9F9F9;}
	.st1{fill:#EF7E05;}
</style>
<g>
	<g>
		<path id="ktrua" class="st0" d="M85,16.5c-1.2,0-1.6-0.4-1.6-1.6c0-1,0.5-1.6,1.6-1.6c1.2,0,1.6,0.5,1.6,1.6
			C86.6,15.9,86.1,16.5,85,16.5L85,16.5z"/>
	</g>
</g>
<g>
	<g>
		<path id="ktrub" class="st1" d="M11.1,24.6c-0.4,0-0.7-0.2-0.9-0.6l-3-8.6l-0.6,1.7c-0.1,0.4-0.5,0.6-0.9,0.6H0.9
			c-0.5,0-0.9-0.4-0.9-0.9c0-0.5,0.4-0.9,0.9-0.9h4.2l1.2-3.6c0.1-0.4,0.5-0.6,0.9-0.6c0.4,0,0.7,0.3,0.9,0.6l2.7,7.7l2.1-13.7
			c0.1-0.5,0.5-0.9,1-0.8c0.4,0,0.7,0.3,0.8,0.7l2.4,9.7h4.6c0.5,0,0.9,0.4,0.9,0.9c0,0.5-0.4,0.9-0.9,0.9h-5.3
			c-0.4,0-0.8-0.3-0.9-0.7l-1.5-6l-2,12.8C11.9,24.3,11.6,24.6,11.1,24.6L11.1,24.6z"/>
	</g>
</g>
<g>
	<g>
		<path id="ktruc" class="st0" d="M45.8,11.3c-1.3-0.4-2.6-0.6-3.9-0.6c-3.7,0-4.9,1.3-4.9,4c0,3,1.3,4.2,5,4.2
			c1.3,0,2.6-0.3,3.8-0.7l0.4,2.2c-1.4,0.6-3,1-4.6,1c-5.3,0-7.8-2.5-7.8-6.6c0-3.9,2.5-6.6,8.1-6.6c1.5,0,2.9,0.2,4.3,0.7
			L45.8,11.3z"/>
	</g>
</g>
<g>
	<g>
		<path id="ktrud" class="st0" d="M56.8,10.7c-3.3,0-4.6,1.3-4.6,4.1c0,2.8,1.3,4.1,4.6,4.1c3.3,0,4.6-1.3,4.6-4.1
			S60.2,10.7,56.8,10.7z M56.8,21.4c-5.6,0-7.8-2.7-7.8-6.6c0-3.9,2.2-6.6,7.8-6.6c5.6,0,7.8,2.7,7.8,6.6
			C64.6,18.7,62.5,21.4,56.8,21.4z"/>
	</g>
</g>
<g>
	<g>
		<path id="ktrue" class="st0" d="M74.9,10.5h-3.7v3.8h3.5c2.1,0,3-0.6,3-2C77.8,11.1,77,10.5,74.9,10.5z M77.7,15.8L77.7,15.8
			l4.6,5.2h-3.8L75,16.4h-3.7V21h-3.2V8.2H75c4,0,6.1,1.5,6.1,4C81.1,13.9,79.9,15.4,77.7,15.8L77.7,15.8z"/>
	</g>
</g>
<g>
	<g>
		<path id="ktruf" class="st0" d="M100.7,13.5c-0.1-1.3-1.3-2.1-3.3-2.1c-2.3,0-3.2,0.8-3.5,2.1H100.7z M89.7,14.7
			c0-3.5,2.5-6.5,7.6-6.5c4.2,0,7.1,2.4,7.1,6.1c0,0.5-0.1,1-0.1,1.5H94c0.2,1.5,1.8,2.3,4.6,2.3c1.6,0,3.2-0.2,4.8-0.7l0.5,2.9
			c-1.8,0.7-3.8,1.1-5.8,1.1C92.4,21.4,89.7,18.7,89.7,14.7z"/>
	</g>
</g>
<g>
	<g>
		<path id="ktrug" class="st0" d="M28,0.2C28,0.1,28.1,0,28.3,0s0.2,0.1,0.2,0.2v30.5c0,0.1-0.1,0.2-0.2,0.2c-0.1,0-0.2-0.1-0.2-0.2
			V0.2z"/>
	</g>
</g>
</svg>
